An Exploration of Lobbying in Chicago
…
ald_totals

## # A tibble: 50 x 3
##    ALDERMAN     sum     n
##    <chr>      <dbl> <int>
##  1 BURKE     82304.    84
##  2 REILLY    59074.    88
##  3 HOPKINS   58765     97
##  4 AUSTIN    39275     79
##  5 O'CONNOR  35250     65
##  6 LAURINO   29525     59
##  7 VALENCIA  27750     42
##  8 JOE MOORE 27725     58
##  9 MELL      24150     65
## 10 BURNETT   23000     39
## #  with 40 more rows
…
