assignment2
…
alderman_contributions

## # A tibble: 5,363 x 12
##    CONTRIBUTION_ID PERIOD_START PERIOD_END CONTRIBUTION_DA RECIPIENT
##              <dbl> <date>       <date>     <date>           <chr>    
##  1             181 2012-01-01   2012-06-30 2012-04-26       ALDERMAN
##  2             187 2012-01-01   2012-06-30 2012-04-24       CITIZENS
##  3             295 2012-01-01   2012-06-30 2012-06-29       CITIZENS
##  4             342 2012-01-01   2012-06-30 2012-03-01       ALDERMAN
##  5             422 2012-01-01   2012-06-30 2012-02-21       FRIENDS 
##  6             353 2012-01-01   2012-06-30 2012-06-26       NEIGHBOR
##  7             356 2012-01-01   2012-06-30 2012-05-24       LESLIE H
##  8             322 2012-01-01   2012-06-30 2012-03-02       ALDERMAN
##  9             321 2012-01-01   2012-06-30 2012-02-07       ALDERMAN
## 10             289 2012-01-01   2012-06-30 2012-02-23       FRIENDS 
## #  with 5,353 more rows, and 7 more variables: AMOUNT <dbl>,
## #   LOBBYIST_ID <dbl>, LOBBYIST_FIRST_NAME <chr>,
## #   LOBBYIST_LAST_NAME <chr>, CREATED_DATE <chr>, LOBBYIST_NAME <chr>,
## #   ALDERMAN <chr>
…
alderman_contributions %>% filter(str_detect(RECIPIENT, "O'CONNOR")) %>% group_by(LOBBYIST_NAME) %>% summarise(n = n()) %>% arrange(desc(n))

## # A tibble: 53 x 2
##    LOBBYIST_NAME         n
##    <chr>             <int>
##  1 JOSEPH GATTUSO       56
##  2 MICHAEL KASPER       42
##  3 JOHN GEORGE          39
##  4 COURTNEY NOTTAGE     38
##  5 DAVID DRING          35
##  6 BRIDGET O'KEEFE      18
##  7 JOHN DOERRER         14
##  8 JOHN DUNN            13
##  9 WILLIAM FILAN        11
## 10 DENNIS O'SULLIVAN    10
## #  with 43 more rows

compensation %>% filter(str_detect(LOBBYIST_NAME, 'GATTUSO')) %>% group_by(CLIENT_NAME) %>% summarise(sum = sum(COMPENSATION_AMOUNT)) %>% arrange(desc(sum))

## # A tibble: 120 x 2
##    CLIENT_NAME                          sum
##    <chr>                              <dbl>
##  1 NORTH PARK UNIVERSITY            234816.
##  2 COMPASS GROUP USA INC            116234.
##  3 MUSIC AND DANCE THEATER CHICAGO   86785 
##  4 INTRINSIC SCHOOLS                 79252.
##  5 ZELLER REALTY CORP.               75402.
##  6 NOBLE NETWORK OF CHARTER SCHOOLS  73802.
##  7 CHIK-FIL-A INC                    73075 
##  8 HARPER COURT PARTNERS LLC         64500 
##  9 CHICK-FIL-A INC                   57828.
## 10 MID-CONTINENA BLDG CORP           51000 
## #  with 110 more rows
